{
  "name": "example-audio",
  "app_id": "",
  "gulpStartupTasks": [
    "sass",
    "watch"
  ],
  "watchPatterns": [
    "www/**/*",
    "!www/lib/**/*"
  ],
  "browsers": [
    {
      "platform": "android",
      "browser": "crosswalk",
      "version": "11.40.277.7"
    }
  ],
  "integrations": {
    "cordova": {}
  },
  "type": "ionic1"
}
